{
  "$schema": "{{{draft}}}",
  "type": "object",
  "definitions": {
    "CommonParams": {
      "properties": {
        "Description": {
          "type": "string",
          "maxLength": 4000
        },
        "NoEcho": {
          "type": "boolean"
        },
        "ConstraintDescription": {
          "type": "string",
          "maxLength": 4000
        }
      }
    },
    "StringParamCommon": {
      "allOf": [
        {
          "properties": {
            "Default": {
              "type": "string"
            },
            "AllowedValues": {
              "type": "array",
              "items": {
                "type": "string"
              },
              "minItems": 1
            }
          }
        },
        {
          "$ref": "#/definitions/CommonParams"
        }
      ]
    },
    "StringParam": {
      "allOf": [
        {
          "type": "object",
          "properties": {
            "Type": {
              "enum": [
                "String"
              ]
            },
            "AllowedPattern": {
              "type": "string"
            },
            "MaxLength": {
              "type": "integer",
              "minimum": 1
            },
            "MinLength": {
              "type": "integer",
              "minimum": 1
            }
          },
          "required": [
            "Type"
          ]
        },
        {
          "$ref": "#/definitions/StringParamCommon"
        }
      ]
    },
    "StringLikeParam": {
      "allOf": [
        {
          "type": "object",
          "properties": {
            "Type": {
              "enum": [
                "AWS::EC2::AvailabilityZone::Name",
                "AWS::EC2::Image::Id",
                "AWS::EC2::Instance::Id",
                "AWS::EC2::SecurityGroup::GroupName",
                "AWS::EC2::SecurityGroup::Id",
                "AWS::EC2::Subnet::Id",
                "AWS::EC2::Volume::Id",
                "AWS::EC2::VPC::Id",
                "AWS::Route53::HostedZone::Id",
                "AWS::EC2::KeyPair::KeyName",
                "AWS::SSM::Parameter::Value<AWS::EC2::AvailabilityZone::Name>",
                "AWS::SSM::Parameter::Value<AWS::EC2::Image::Id>",
                "AWS::SSM::Parameter::Value<AWS::EC2::Instance::Id>",
                "AWS::SSM::Parameter::Value<AWS::EC2::SecurityGroup::GroupName>",
                "AWS::SSM::Parameter::Value<AWS::EC2::SecurityGroup::Id>",
                "AWS::SSM::Parameter::Value<AWS::EC2::Subnet::Id>",
                "AWS::SSM::Parameter::Value<AWS::EC2::Volume::Id>",
                "AWS::SSM::Parameter::Value<AWS::EC2::VPC::Id>",
                "AWS::SSM::Parameter::Value<AWS::Route53::HostedZone::Id>",
                "AWS::SSM::Parameter::Value<AWS::EC2::KeyPair::KeyName>"
              ]
            }
          },
          "required": [
            "Type"
          ]
        },
        {
          "$ref": "#/definitions/StringParamCommon"
        }
      ]
    },
    "NumberParam": {
      "allOf": [
        {
          "type": "object",
          "properties": {
            "Type": {
              "enum": [
                "Number"
              ]
            },
            "Default": {
              "type": "integer"
            },
            "AllowedValues": {
              "type": "array",
              "items": {
                "type": "integer"
              },
              "minItems": 1
            }
          },
          "required": [
            "Type"
          ]
        },
        {
          "$ref": "#/definitions/CommonParams"
        }
      ]
    },
    "CommaDelimitedList": {
      "allOf": [
        {
          "type": "object",
          "properties": {
            "Type": {
              "enum": [
                "CommaDelimitedList",
                "AWS::SSM::Parameter::Value<CommaDelimitedList>"
              ]
            },
            "Default": {
              "type": "string"
            }
          },
          "required": [
            "Type"
          ]
        },
        {
          "$ref": "#/definitions/CommonParams"
        }
      ]
    },
    "StringLikeList": {
      "allOf": [
        {
          "type": "object",
          "properties": {
            "Type": {
              "enum": [
                "List<AWS::EC2::AvailabilityZone::Name>",
                "List<AWS::EC2::Image::Id>",
                "List<AWS::EC2::Instance::Id>",
                "List<AWS::EC2::SecurityGroup::GroupName>",
                "List<AWS::EC2::SecurityGroup::Id>",
                "List<AWS::EC2::Subnet::Id>",
                "List<AWS::EC2::Volume::Id>",
                "List<AWS::EC2::VPC::Id>",
                "List<AWS::Route53::HostedZone::Id>",
                "AWS::SSM::Parameter::Value<List<String>>",
                "AWS::SSM::Parameter::Value<List<AWS::EC2::AvailabilityZone::Name>>",
                "AWS::SSM::Parameter::Value<List<AWS::EC2::Image::Id>>",
                "AWS::SSM::Parameter::Value<List<AWS::EC2::Instance::Id>>",
                "AWS::SSM::Parameter::Value<List<AWS::EC2::SecurityGroup::GroupName>>",
                "AWS::SSM::Parameter::Value<List<AWS::EC2::SecurityGroup::Id>>",
                "AWS::SSM::Parameter::Value<List<AWS::EC2::Subnet::Id>>",
                "AWS::SSM::Parameter::Value<List<AWS::EC2::Volume::Id>>",
                "AWS::SSM::Parameter::Value<List<AWS::EC2::VPC::Id>>",
                "AWS::SSM::Parameter::Value<List<AWS::Route53::HostedZone::Id>>"
              ]
            },
            "Default": {
              "type": "array",
              "items": {
                "type": "string"
              },
              "minItems": 1
            }
          }
        },
        {
          "$ref": "#/definitions/CommonParams"
        }
      ]
    },
    "NumberList": {
      "allOf": [
        {
          "type": "object",
          "properties": {
            "Type": {
              "enum": [
                "List<Number>",
                "AWS::SSM::Parameter::Value<List<Integer>>"
              ]
            },
            "Default": {
              "type": "array",
              "items": {
                "type": "integer"
              },
              "minItems": 1
            }
          },
          "required": [
            "Type"
          ]
        },
        {
          "$ref": "#/definitions/CommonParams"
        }
      ]
    },
    "parameters": {
      "type": "object",
      "properties": {
          "IamGlobalOwnerName": {
              
          }
      },
      "additionalProperties": {
        "oneOf": [
          {
            "$ref": "#/definitions/StringParam"
          },
          {
            "$ref": "#/definitions/StringLikeParam"
          },
          {
            "$ref": "#/definitions/NumberParam"
          },
          {
            "$ref": "#/definitions/CommaDelimitedList"
          },
          {
            "$ref": "#/definitions/StringLikeList"
          },
          {
            "$ref": "#/definitions/NumberList"
          }
        ]
      }
    },
    {{{intrinsics}}}
    {{{resources}}}
  },
  "additionalProperties": false,
  "properties": {
    "Parameters": {
      "description": "https://docs.aws.amazon.com/AWSCloudFormation/latest/UserGuide/parameters-section-structure.html",
      "$ref": "#/definitions/parameters"
    },
  },
  "description": "{{description}}",
  "required": [
    "Resources"
  ]
}
